[
	{
		"code": "MFCUST",
		"name": "Curbstone customer number",
		"length": 5,
		"required": "Y",
		"type": "request"
	},
	{
		"code": "MFMRCH",
		"name": "Curbstone merchant code",
		"length": 5,
		"required": "Y",
		"type": "request"
	},
	{
		"code": "MFTYPE",
		"name": "Transaction type",
		"length": 2,
		"required": "Y",
		"type": "request"
	},
	{
		"code": "MFTYP2",
		"name": "Secondary transaction type",
		"length": 2,
		"required": "Y",
		"type": "request"
	},
	{
		"code": "MFMETH",
		"name": "Entry method",
		"length": 2,
		"required": "Y",
		"type": "request"
	},
	{
		"code": "MFORDR",
		"name": "Order / PO Number",
		"length": 16,
		"required": "Y",
		"type": "request"
	},
	{
		"code": "MFAMT1",
		"name": "Transaction Amount",
		"length": 15,
		"required": "Y",
		"type": "request"
	},
	{
		"code": "MFNAME",
		"name": "Customer Name",
		"length": 40,
		"required": "N",
		"type": "request"
	},
	{
		"code": "MFADD1",
		"name": "Street Address",
		"length": 24,
		"required": "N",
		"type": "request"
	},
	{
		"code": "MFADD2",
		"name": "Street Address 2",
		"length": 24,
		"required": "N",
		"type": "request"
	},
	{
		"code": "MFCITY",
		"name": "City",
		"length": 20,
		"required": "N",
		"type": "request"
	},
	{
		"code": "MFSTAT",
		"name": "State",
		"length": 20,
		"required": "N",
		"type": "request"
	},
	{
		"code": "MFZIPC",
		"name": "Zip Code",
		"length": 9,
		"required": "N",
		"type": "request"
	},
	{
		"code": "MFDSTZ",
		"name": "Ship to Zip Code",
		"length": 9,
		"required": "N",
		"type": "request"
	},
	{
		"code": "MPCUST",
		"name": "Customer Number",
		"length": 10,
		"required": "Y",
		"type": "request"
	},
	{
		"code": "MFLTXF",
		"name": "Local Tax Flag",
		"length": 1,
		"required": "N",
		"type": "request"
	},
	{
		"code": "MFAMT2",
		"name": "Tax amount",
		"length": 15,
		"required": "N",
		"type": "request"
	},
	{
		"code": "MFREFR",
		"name": "Invoice number",
		"length": 35,
		"required": "Y",
		"type": "request"
	},
	{
		"code": "MPTRGT",
		"name": "Return Target URL",
		"length": 500,
		"required": "Y",
		"type": "request"
	},
	{
		"code": "MFUSD1",
		"name": "User Defined Field 1",
		"length": 1,
		"required": "N",
		"type": "request"
	},
	{
		"code": "MFUSD2",
		"name": "User Defined Field 2",
		"length": 1,
		"required": "N",
		"type": "request"
	},
	{
		"code": "MFUSD3",
		"name": "User Defined Field 3",
		"length": 1,
		"required": "N",
		"type": "request"
	},
	{
		"code": "MFUSD4",
		"name": "User Defined Field 4",
		"length": 2,
		"required": "N",
		"type": "request"
	},
	{
		"code": "MFUSD5",
		"name": "User Defined Field 5",
		"length": 7,
		"required": "N",
		"type": "request"
	},
	{
		"code": "MFUSD6",
		"name": "User Defined Field 6",
		"length": 10,
		"required": "N",
		"type": "request"
	},
	{
		"code": "MFUSD7",
		"name": "User Defined Field 7",
		"length": 16,
		"required": "N",
		"type": "request"
	},
	{
		"code": "MFUSD8",
		"name": "User Defined Field 8",
		"length": 16,
		"required": "N",
		"type": "request"
	},
	{
		"code": "MFUSDA",
		"name": "User Defined Field A",
		"length": 15,
		"required": "N",
		"type": "request"
	},
	{
		"code": "MFUSDB",
		"name": "User Defined Field B",
		"length": 15,
		"required": "N",
		"type": "request"
	},
	{
		"code": "MFUSDC",
		"name": "User Defined Field C",
		"length": 15,
		"required": "N",
		"type": "request"
	},
	{
		"code": "MPCUSF",
		"name": "User custom fields",
		"length": 300,
		"required": "N",
		"type": "request"
	},
	{
		"code": "MFRTRN",
		"name": "Response Code. UG=Approved UN=Declined UL=Local Error With Local Error also check MFATAL field for error code",
		"type": "response"
	},
	{
		"code": "MFAPPR",
		"name": "Auth approval code",
		"type": "response"
	},
	{
		"code": "MFSEQN",
		"name": "Network internal tracking",
		"type": "response"
	},
	{
		"code": "MFRREF",
		"name": "More txn result detail",
		"type": "response"
	},
	{
		"code": "MFRTXT",
		"name": "Response reason code text",
		"type": "response"
	},
	{
		"code": "MFRAVS",
		"name": "AVS response code",
		"type": "response"
	},
	{
		"code": "MFRCVV",
		"name": "CVV resonse code",
		"type": "response"
	},
	{
		"code": "MFUKEY",
		"name": "Unique transaction token",
		"type": "response"
	},
	{
		"code": "MFCARD",
		"name": "Masked card number",
		"type": "response"
	},
	{
		"code": "MFEDAT",
		"name": "Expiry date",
		"type": "response"
	},
	{
		"code": "MFRVNA",
		"name": "Card vendor",
		"type": "response"
	},
	{
		"code": "MFATAL",
		"name": "Local error code (For UL)",
		"type": "response"
	},
	{
		"code": "MFSESS",
		"name": "Curbstone Session Id",
		"type": "response"
	},
	{
		"code": "MFKEYP",
		"name": "",
		"type": "response"
	},
	{
		"code": "MFSETR",
		"name": "",
		"type": "response"
	}
]